<?xml version="1.0" encoding="UTF-8" standalone="no"?>
<!-- Created with Inkscape (http://www.inkscape.org/) -->

<svg
   xmlns:dc="http://purl.org/dc/elements/1.1/"
   xmlns:cc="http://creativecommons.org/ns#"
   xmlns:rdf="http://www.w3.org/1999/02/22-rdf-syntax-ns#"
   xmlns:svg="http://www.w3.org/2000/svg"
   xmlns="http://www.w3.org/2000/svg"
   xmlns:sodipodi="http://sodipodi.sourceforge.net/DTD/sodipodi-0.dtd"
   xmlns:inkscape="http://www.inkscape.org/namespaces/inkscape"
   width="995.67542mm"
   height="681.2066mm"
   viewBox="0 0 995.67544 681.20658"
   version="1.1"
   id="svg8"
   sodipodi:docname="bloodshot.svg"
   inkscape:version="0.92.3 (2405546, 2018-03-11)"
   style="enable-background:new"
   inkscape:export-filename="/home/thoth/git/quizblaster/images/bloodshot.png"
   inkscape:export-xdpi="40.2808"
   inkscape:export-ydpi="40.2808">
  <defs
     id="defs2" />
  <sodipodi:namedview
     id="base"
     pagecolor="#ffffff"
     bordercolor="#666666"
     borderopacity="1.0"
     inkscape:pageopacity="0.0"
     inkscape:pageshadow="2"
     inkscape:zoom="0.125"
     inkscape:cx="492.8799"
     inkscape:cy="1433.82"
     inkscape:document-units="mm"
     inkscape:current-layer="layer2"
     showgrid="false"
     inkscape:window-width="1362"
     inkscape:window-height="729"
     inkscape:window-x="0"
     inkscape:window-y="18"
     inkscape:window-maximized="0"
     fit-margin-top="0"
     fit-margin-left="0"
     fit-margin-right="0"
     fit-margin-bottom="0" />
  <metadata
     id="metadata5">
    <rdf:RDF>
      <cc:Work
         rdf:about="">
        <dc:format>image/svg+xml</dc:format>
        <dc:type
           rdf:resource="http://purl.org/dc/dcmitype/StillImage" />
        <dc:title />
      </cc:Work>
    </rdf:RDF>
  </metadata>
  <g
     inkscape:groupmode="layer"
     id="layer2"
     inkscape:label="bloodshot">
    <path
       sodipodi:type="spiral"
       style="fill:#ff0000;fill-rule:evenodd;stroke:#800000;stroke-width:42.2;stroke-miterlimit:4;stroke-dasharray:none"
       id="path16"
       sodipodi:cx="493.18332"
       sodipodi:cy="331.9566"
       sodipodi:expansion="1"
       sodipodi:revolution="3"
       sodipodi:radius="360.66656"
       sodipodi:argument="-21.535376"
       sodipodi:t0="0"
       d="m 493.18332,331.9566 c -16.23733,-7.95946 2.71827,-25.81451 13.22914,-26.9875 28.48383,-3.17875 44.33987,29.27395 40.74588,53.44579 -6.42882,43.23777 -54.2884,64.41847 -93.66246,54.50424 -57.783,-14.54953 -84.93522,-79.58548 -68.2626,-133.87911 22.22199,-72.36486 104.97546,-105.62925 174.09576,-82.02096 86.98085,29.70862 126.41307,130.40789 95.77933,214.31241 C 618.00681,512.95109 499.24449,558.57999 400.5793,520.86917 284.3058,476.42826 232.46297,339.53467 277.28325,226.12344 329.03004,95.185691 484.09812,37.117696 612.24562,89.069025 757.85496,148.09943 822.1559,321.37115 763.05841,464.24805 696.75995,624.53435 505.26401,695.07385 347.66272,628.8192 172.69543,555.26398 95.913174,345.52872 169.33321,173.20686" />
  </g>
</svg>
