  0
SECTION
  2
HEADER
  9
$ACADVER
  1
AC1014
  9
$HANDSEED
  5
FFFF
  9
$MEASUREMENT
 70
     1
  0
ENDSEC
  0
SECTION
  2
TABLES
  0
TABLE
  2
VPORT
  5
8
330
0
100
AcDbSymbolTable
 70
     4
  0
VPORT
  5
2E
330
8
100
AcDbSymbolTableRecord
100
AcDbViewportTableRecord
  2
*ACTIVE
 70
     0
 10
0.0
 20
0.0
 11
1.0
 21
1.0
 12
210.0
 22
148.5
 13
0.0
 23
0.0
 14
10.0
 24
10.0
 15
10.0
 25
10.0
 16
0.0
 26
0.0
 36
1.0
 17
0.0
 27
0.0
 37
0.0
 40
341.0
 41
1.24
 42
50.0
 43
0.0
 44
0.0
 50
0.0
 51
0.0
 71
     0
 72
   100
 73
     1
 74
     3
 75
     0
 76
     0
 77
     0
 78
     0
  0
ENDTAB
  0
TABLE
  2
LTYPE
  5
5
330
0
100
AcDbSymbolTable
 70
     1
  0
LTYPE
  5
14
330
5
100
AcDbSymbolTableRecord
100
AcDbLinetypeTableRecord
  2
BYBLOCK
 70
     0
  3

 72
    65
 73
     0
 40
0.0
  0
LTYPE
  5
15
330
5
100
AcDbSymbolTableRecord
100
AcDbLinetypeTableRecord
  2
BYLAYER
 70
     0
  3

 72
    65
 73
     0
 40
0.0
  0
LTYPE
  5
16
330
5
100
AcDbSymbolTableRecord
100
AcDbLinetypeTableRecord
  2
CONTINUOUS
 70
     0
  3
Solid line
 72
    65
 73
     0
 40
0.0
  0
ENDTAB
  0
TABLE
  2
LAYER
  5
2
100
AcDbSymbolTable
 70
2
  0
LAYER
  5
50
100
AcDbSymbolTableRecord
100
AcDbLayerTableRecord
  2
0
 70
0
  6
CONTINUOUS
  0
LAYER
  5
51
100
AcDbSymbolTableRecord
100
AcDbLayerTableRecord
  2
12x12_Epsilon
 70
0
  6
CONTINUOUS
  0
ENDTAB
  0
TABLE
  2
STYLE
  5
3
330
0
100
AcDbSymbolTable
 70
     1
  0
STYLE
  5
11
330
3
100
AcDbSymbolTableRecord
100
AcDbTextStyleTableRecord
  2
STANDARD
 70
     0
 40
0.0
 41
1.0
 50
0.0
 71
     0
 42
2.5
  3
txt
  4

  0
ENDTAB
  0
TABLE
  2
VIEW
  5
6
330
0
100
AcDbSymbolTable
 70
     0
  0
ENDTAB
  0
TABLE
  2
UCS
  5
7
330
0
100
AcDbSymbolTable
 70
     0
  0
ENDTAB
  0
TABLE
  2
APPID
  5
9
330
0
100
AcDbSymbolTable
 70
     2
  0
APPID
  5
12
330
9
100
AcDbSymbolTableRecord
100
AcDbRegAppTableRecord
  2
ACAD
 70
     0
  0
ENDTAB
  0
TABLE
  2
DIMSTYLE
  5
A
330
0
100
AcDbSymbolTable
 70
     1
  0
DIMSTYLE
105
27
330
A
100
AcDbSymbolTableRecord
100
AcDbDimStyleTableRecord
  2
ISO-25
 70
     0
  3

  4

  5

  6

  7

 40
1.0
 41
2.5
 42
0.625
 43
3.75
 44
1.25
 45
0.0
 46
0.0
 47
0.0
 48
0.0
140
2.5
141
2.5
142
0.0
143
0.03937007874016
144
1.0
145
0.0
146
1.0
147
0.625
 71
     0
 72
     0
 73
     0
 74
     0
 75
     0
 76
     0
 77
     1
 78
     8
170
     0
171
     3
172
     1
173
     0
174
     0
175
     0
176
     0
177
     0
178
     0
270
     2
271
     2
272
     2
273
     2
274
     3
340
11
275
     0
280
     0
281
     0
282
     0
283
     0
284
     8
285
     0
286
     0
287
     3
288
     0
  0
ENDTAB
  0
TABLE
  2
BLOCK_RECORD
  5
1
330
0
100
AcDbSymbolTable
 70
     1
  0
BLOCK_RECORD
  5
1F
330
1
100
AcDbSymbolTableRecord
100
AcDbBlockTableRecord
  2
*MODEL_SPACE
  0
BLOCK_RECORD
  5
1B
330
1
100
AcDbSymbolTableRecord
100
AcDbBlockTableRecord
  2
*PAPER_SPACE
  0
ENDTAB
  0
ENDSEC
  0
SECTION
  2
BLOCKS
  0
BLOCK
  5
20
330
1F
100
AcDbEntity
  8
0
100
AcDbBlockBegin
  2
*MODEL_SPACE
 70
     0
 10
0.0
 20
0.0
 30
0.0
  3
*MODEL_SPACE
  1

  0
ENDBLK
  5
21
330
1F
100
AcDbEntity
  8
0
100
AcDbBlockEnd
  0
BLOCK
  5
1C
330
1B
100
AcDbEntity
 67
     1
  8
0
100
AcDbBlockBegin
  2
*PAPER_SPACE
  1

  0
ENDBLK
  5
1D
330
1B
100
AcDbEntity
 67
     1
  8
0
100
AcDbBlockEnd
  0
ENDSEC
  0
SECTION
  2
ENTITIES
  0
SPLINE
  5
100
100
AcDbEntity
  8
12x12_Epsilon
 62
7
100
AcDbSpline
 70
8
 71
3
 72
8
 73
4
 74
0
 40
0
 40
0
 40
0
 40
0
 40
1
 40
1
 40
1
 40
1
 10
5.307681
 20
6.053113
 30
0.0
 10
4.621458
 20
6.296953
 30
0.0
 10
4.278346
 20
6.666201
 30
0.0
 10
4.278347
 20
7.160857
 30
0.0
  0
SPLINE
  5
101
100
AcDbEntity
  8
12x12_Epsilon
 62
7
100
AcDbSpline
 70
8
 71
3
 72
8
 73
4
 74
0
 40
0
 40
0
 40
0
 40
0
 40
1
 40
1
 40
1
 40
1
 10
4.278347
 20
7.160857
 30
0.0
 10
4.278346
 20
7.551001
 30
0.0
 10
4.460352
 20
7.862771
 30
0.0
 10
4.824364
 20
8.096168
 30
0.0
  0
SPLINE
  5
102
100
AcDbEntity
  8
12x12_Epsilon
 62
7
100
AcDbSpline
 70
8
 71
3
 72
8
 73
4
 74
0
 40
0
 40
0
 40
0
 40
0
 40
1
 40
1
 40
1
 40
1
 10
4.824364
 20
8.096168
 30
0.0
 10
5.188375
 20
8.329556
 30
0.0
 10
5.640340
 20
8.446252
 30
0.0
 10
6.180264
 20
8.446257
 30
0.0
  0
SPLINE
  5
103
100
AcDbEntity
  8
12x12_Epsilon
 62
7
100
AcDbSpline
 70
8
 71
3
 72
8
 73
4
 74
0
 40
0
 40
0
 40
0
 40
0
 40
1
 40
1
 40
1
 40
1
 10
6.180264
 20
8.446257
 30
0.0
 10
6.671415
 20
8.446257
 30
0.0
 10
7.061552
 20
8.365261
 30
0.0
 10
7.350674
 20
8.203285
 30
0.0
  0
SPLINE
  5
104
100
AcDbEntity
  8
12x12_Epsilon
 62
7
100
AcDbSpline
 70
8
 71
3
 72
8
 73
4
 74
0
 40
0
 40
0
 40
0
 40
0
 40
1
 40
1
 40
1
 40
1
 10
7.350674
 20
8.203285
 30
0.0
 10
7.639789
 20
8.041299
 30
0.0
 10
7.784350
 20
7.847096
 30
0.0
 10
7.784353
 20
7.620675
 30
0.0
  0
SPLINE
  5
105
100
AcDbEntity
  8
12x12_Epsilon
 62
7
100
AcDbSpline
 70
8
 71
3
 72
8
 73
4
 74
0
 40
0
 40
0
 40
0
 40
0
 40
1
 40
1
 40
1
 40
1
 10
7.784353
 20
7.620675
 30
0.0
 10
7.784353
 20
7.502233
 30
0.0
 10
7.739066
 20
7.398599
 30
0.0
 10
7.648502
 20
7.309775
 30
0.0
  0
SPLINE
  5
106
100
AcDbEntity
  8
12x12_Epsilon
 62
7
100
AcDbSpline
 70
8
 71
3
 72
8
 73
4
 74
0
 40
0
 40
0
 40
0
 40
0
 40
1
 40
1
 40
1
 40
1
 10
7.648502
 20
7.309775
 30
0.0
 10
7.557931
 20
7.220943
 30
0.0
 10
7.453430
 20
7.176528
 30
0.0
 10
7.334999
 20
7.176532
 30
0.0
  0
SPLINE
  5
107
100
AcDbEntity
  8
12x12_Epsilon
 62
7
100
AcDbSpline
 70
8
 71
3
 72
8
 73
4
 74
0
 40
0
 40
0
 40
0
 40
0
 40
1
 40
1
 40
1
 40
1
 10
7.334999
 20
7.176532
 30
0.0
 10
7.139928
 20
7.176529
 30
0.0
 10
6.979693
 20
7.312384
 30
0.0
 10
6.854295
 20
7.584098
 30
0.0
  0
SPLINE
  5
108
100
AcDbEntity
  8
12x12_Epsilon
 62
7
100
AcDbSpline
 70
8
 71
3
 72
8
 73
4
 74
0
 40
0
 40
0
 40
0
 40
0
 40
1
 40
1
 40
1
 40
1
 10
6.854295
 20
7.584098
 30
0.0
 10
6.680124
 20
7.960308
 30
0.0
 10
6.418872
 20
8.148416
 30
0.0
 10
6.070538
 20
8.148420
 30
0.0
  0
SPLINE
  5
109
100
AcDbEntity
  8
12x12_Epsilon
 62
7
100
AcDbSpline
 70
8
 71
3
 72
8
 73
4
 74
0
 40
0
 40
0
 40
0
 40
0
 40
1
 40
1
 40
1
 40
1
 10
6.070538
 20
8.148420
 30
0.0
 10
5.795350
 20
8.148415
 30
0.0
 10
5.568931
 20
8.057845
 30
0.0
 10
5.391282
 20
7.876710
 30
0.0
  0
SPLINE
  5
10a
100
AcDbEntity
  8
12x12_Epsilon
 62
7
100
AcDbSpline
 70
8
 71
3
 72
8
 73
4
 74
0
 40
0
 40
0
 40
0
 40
0
 40
1
 40
1
 40
1
 40
1
 10
5.391282
 20
7.876710
 30
0.0
 10
5.213629
 20
7.695565
 30
0.0
 10
5.124803
 20
7.443014
 30
0.0
 10
5.124805
 20
7.119055
 30
0.0
  0
SPLINE
  5
10b
100
AcDbEntity
  8
12x12_Epsilon
 62
7
100
AcDbSpline
 70
8
 71
3
 72
8
 73
4
 74
0
 40
0
 40
0
 40
0
 40
0
 40
1
 40
1
 40
1
 40
1
 10
5.124805
 20
7.119055
 30
0.0
 10
5.124803
 20
6.481577
 30
0.0
 10
5.453981
 20
6.162840
 30
0.0
 10
6.112338
 20
6.162842
 30
0.0
  0
SPLINE
  5
10c
100
AcDbEntity
  8
12x12_Epsilon
 62
7
100
AcDbSpline
 70
8
 71
3
 72
8
 73
4
 74
0
 40
0
 40
0
 40
0
 40
0
 40
1
 40
1
 40
1
 40
1
 10
6.112338
 20
6.162842
 30
0.0
 10
6.182003
 20
6.162840
 30
0.0
 10
6.262120
 20
6.169807
 30
0.0
 10
6.352691
 20
6.183743
 30
0.0
  0
SPLINE
  5
10d
100
AcDbEntity
  8
12x12_Epsilon
 62
7
100
AcDbSpline
 70
8
 71
3
 72
8
 73
4
 74
0
 40
0
 40
0
 40
0
 40
0
 40
1
 40
1
 40
1
 40
1
 10
6.352691
 20
6.183743
 30
0.0
 10
6.509439
 20
6.204641
 30
0.0
 10
6.631356
 20
6.215092
 30
0.0
 10
6.718444
 20
6.215094
 30
0.0
  0
SPLINE
  5
10e
100
AcDbEntity
  8
12x12_Epsilon
 62
7
100
AcDbSpline
 70
8
 71
3
 72
8
 73
4
 74
0
 40
0
 40
0
 40
0
 40
0
 40
1
 40
1
 40
1
 40
1
 10
6.718444
 20
6.215094
 30
0.0
 10
6.930926
 20
6.215092
 30
0.0
 10
7.037168
 20
6.154131
 30
0.0
 10
7.037172
 20
6.032212
 30
0.0
  0
SPLINE
  5
10f
100
AcDbEntity
  8
12x12_Epsilon
 62
7
100
AcDbSpline
 70
8
 71
3
 72
8
 73
4
 74
0
 40
0
 40
0
 40
0
 40
0
 40
1
 40
1
 40
1
 40
1
 10
7.037172
 20
6.032212
 30
0.0
 10
7.037172
 20
5.896355
 30
0.0
 10
6.929184
 20
5.828427
 30
0.0
 10
6.713219
 20
5.828429
 30
0.0
  0
SPLINE
  5
110
100
AcDbEntity
  8
12x12_Epsilon
 62
7
100
AcDbSpline
 70
8
 71
3
 72
8
 73
4
 74
0
 40
0
 40
0
 40
0
 40
0
 40
1
 40
1
 40
1
 40
1
 10
6.713219
 20
5.828429
 30
0.0
 10
6.636582
 20
5.828427
 30
0.0
 10
6.521631
 20
5.840619
 30
0.0
 10
6.368366
 20
5.865006
 30
0.0
  0
SPLINE
  5
111
100
AcDbEntity
  8
12x12_Epsilon
 62
7
100
AcDbSpline
 70
8
 71
3
 72
8
 73
4
 74
0
 40
0
 40
0
 40
0
 40
0
 40
1
 40
1
 40
1
 40
1
 10
6.368366
 20
5.865006
 30
0.0
 10
6.253412
 20
5.885904
 30
0.0
 10
6.164586
 20
5.896355
 30
0.0
 10
6.101888
 20
5.896357
 30
0.0
  0
SPLINE
  5
112
100
AcDbEntity
  8
12x12_Epsilon
 62
7
100
AcDbSpline
 70
8
 71
3
 72
8
 73
4
 74
0
 40
0
 40
0
 40
0
 40
0
 40
1
 40
1
 40
1
 40
1
 10
6.101888
 20
5.896357
 30
0.0
 10
5.405214
 20
5.896355
 30
0.0
 10
5.056877
 20
5.541041
 30
0.0
 10
5.056879
 20
4.830415
 30
0.0
  0
SPLINE
  5
113
100
AcDbEntity
  8
12x12_Epsilon
 62
7
100
AcDbSpline
 70
8
 71
3
 72
8
 73
4
 74
0
 40
0
 40
0
 40
0
 40
0
 40
1
 40
1
 40
1
 40
1
 10
5.056879
 20
4.830415
 30
0.0
 10
5.056877
 20
4.485551
 30
0.0
 10
5.149186
 20
4.207744
 30
0.0
 10
5.333807
 20
3.996995
 30
0.0
  0
SPLINE
  5
114
100
AcDbEntity
  8
12x12_Epsilon
 62
7
100
AcDbSpline
 70
8
 71
3
 72
8
 73
4
 74
0
 40
0
 40
0
 40
0
 40
0
 40
1
 40
1
 40
1
 40
1
 10
5.333807
 20
3.996995
 30
0.0
 10
5.518423
 20
3.786245
 30
0.0
 10
5.776192
 20
3.680870
 30
0.0
 10
6.107113
 20
3.680870
 30
0.0
  0
SPLINE
  5
115
100
AcDbEntity
  8
12x12_Epsilon
 62
7
100
AcDbSpline
 70
8
 71
3
 72
8
 73
4
 74
0
 40
0
 40
0
 40
0
 40
0
 40
1
 40
1
 40
1
 40
1
 10
6.107113
 20
3.680870
 30
0.0
 10
6.521631
 20
3.680870
 30
0.0
 10
6.796816
 20
3.895103
 30
0.0
 10
6.932671
 20
4.323570
 30
0.0
  0
SPLINE
  5
116
100
AcDbEntity
  8
12x12_Epsilon
 62
7
100
AcDbSpline
 70
8
 71
3
 72
8
 73
4
 74
0
 40
0
 40
0
 40
0
 40
0
 40
1
 40
1
 40
1
 40
1
 10
6.932671
 20
4.323570
 30
0.0
 10
7.002335
 20
4.549995
 30
0.0
 10
7.079840
 20
4.706751
 30
0.0
 10
7.165185
 20
4.793839
 30
0.0
  0
SPLINE
  5
117
100
AcDbEntity
  8
12x12_Epsilon
 62
7
100
AcDbSpline
 70
8
 71
3
 72
8
 73
4
 74
0
 40
0
 40
0
 40
0
 40
0
 40
1
 40
1
 40
1
 40
1
 10
7.165185
 20
4.793839
 30
0.0
 10
7.250524
 20
4.880924
 30
0.0
 10
7.364604
 20
4.924467
 30
0.0
 10
7.507426
 20
4.924469
 30
0.0
  0
SPLINE
  5
118
100
AcDbEntity
  8
12x12_Epsilon
 62
7
100
AcDbSpline
 70
8
 71
3
 72
8
 73
4
 74
0
 40
0
 40
0
 40
0
 40
0
 40
1
 40
1
 40
1
 40
1
 10
7.507426
 20
4.924469
 30
0.0
 10
7.625856
 20
4.924467
 30
0.0
 10
7.732969
 20
4.881795
 30
0.0
 10
7.828766
 20
4.796451
 30
0.0
  0
SPLINE
  5
119
100
AcDbEntity
  8
12x12_Epsilon
 62
7
100
AcDbSpline
 70
8
 71
3
 72
8
 73
4
 74
0
 40
0
 40
0
 40
0
 40
0
 40
1
 40
1
 40
1
 40
1
 10
7.828766
 20
4.796451
 30
0.0
 10
7.924554
 20
4.711105
 30
0.0
 10
7.972451
 20
4.602247
 30
0.0
 10
7.972455
 20
4.469876
 30
0.0
  0
SPLINE
  5
11a
100
AcDbEntity
  8
12x12_Epsilon
 62
7
100
AcDbSpline
 70
8
 71
3
 72
8
 73
4
 74
0
 40
0
 40
0
 40
0
 40
0
 40
1
 40
1
 40
1
 40
1
 10
7.972455
 20
4.469876
 30
0.0
 10
7.972455
 20
4.152880
 30
0.0
 10
7.794799
 20
3.890749
 30
0.0
 10
7.439500
 20
3.683483
 30
0.0
  0
SPLINE
  5
11b
100
AcDbEntity
  8
12x12_Epsilon
 62
7
100
AcDbSpline
 70
8
 71
3
 72
8
 73
4
 74
0
 40
0
 40
0
 40
0
 40
0
 40
1
 40
1
 40
1
 40
1
 10
7.439500
 20
3.683483
 30
0.0
 10
7.084193
 20
3.476216
 30
0.0
 10
6.653998
 20
3.372583
 30
0.0
 10
6.148914
 20
3.372583
 30
0.0
  0
SPLINE
  5
11c
100
AcDbEntity
  8
12x12_Epsilon
 62
7
100
AcDbSpline
 70
8
 71
3
 72
8
 73
4
 74
0
 40
0
 40
0
 40
0
 40
0
 40
1
 40
1
 40
1
 40
1
 10
6.148914
 20
3.372583
 30
0.0
 10
5.595057
 20
3.372583
 30
0.0
 10
5.103032
 20
3.504955
 30
0.0
 10
4.672838
 20
3.769699
 30
0.0
  0
SPLINE
  5
11d
100
AcDbEntity
  8
12x12_Epsilon
 62
7
100
AcDbSpline
 70
8
 71
3
 72
8
 73
4
 74
0
 40
0
 40
0
 40
0
 40
0
 40
1
 40
1
 40
1
 40
1
 10
4.672838
 20
3.769699
 30
0.0
 10
4.242642
 20
4.034442
 30
0.0
 10
4.027544
 20
4.388014
 30
0.0
 10
4.027545
 20
4.830415
 30
0.0
  0
SPLINE
  5
11e
100
AcDbEntity
  8
12x12_Epsilon
 62
7
100
AcDbSpline
 70
8
 71
3
 72
8
 73
4
 74
0
 40
0
 40
0
 40
0
 40
0
 40
1
 40
1
 40
1
 40
1
 10
4.027545
 20
4.830415
 30
0.0
 10
4.027544
 20
5.384285
 30
0.0
 10
4.454256
 20
5.791851
 30
0.0
 10
5.307681
 20
6.053113
 30
0.0
  0
LWPOLYLINE
  5
11f
100
AcDbEntity
  8
12x12_Epsilon
 62
7
100
AcDbPolyline
 90
4
 70
1
 10
0.000000
 20
11.909420
 30
0.0
 10
12.000000
 20
11.909420
 30
0.0
 10
12.000000
 20
-0.090580
 30
0.0
 10
0.000000
 20
-0.090580
 30
0.0
  0
LWPOLYLINE
  5
120
100
AcDbEntity
  8
12x12_Epsilon
 62
7
100
AcDbPolyline
 90
1
 70
1
 10
5.307681
 20
6.053113
 30
0.0
  0
ENDSEC
  0
SECTION
  2
OBJECTS
  0
DICTIONARY
  5
C
330
0
100
AcDbDictionary
  3
ACAD_GROUP
350
D
  3
ACAD_MLINESTYLE
350
17
  0
DICTIONARY
  5
D
330
C
100
AcDbDictionary
  0
DICTIONARY
  5
1A
330
C
100
AcDbDictionary
  0
DICTIONARY
  5
17
330
C
100
AcDbDictionary
  3
STANDARD
350
18
  0
DICTIONARY
  5
19
330
C
100
AcDbDictionary
  0
ENDSEC
  0
EOF
