  0
SECTION
  2
HEADER
  9
$ACADVER
  1
AC1014
  9
$HANDSEED
  5
FFFF
  9
$MEASUREMENT
 70
     1
  0
ENDSEC
  0
SECTION
  2
TABLES
  0
TABLE
  2
VPORT
  5
8
330
0
100
AcDbSymbolTable
 70
     4
  0
VPORT
  5
2E
330
8
100
AcDbSymbolTableRecord
100
AcDbViewportTableRecord
  2
*ACTIVE
 70
     0
 10
0.0
 20
0.0
 11
1.0
 21
1.0
 12
210.0
 22
148.5
 13
0.0
 23
0.0
 14
10.0
 24
10.0
 15
10.0
 25
10.0
 16
0.0
 26
0.0
 36
1.0
 17
0.0
 27
0.0
 37
0.0
 40
341.0
 41
1.24
 42
50.0
 43
0.0
 44
0.0
 50
0.0
 51
0.0
 71
     0
 72
   100
 73
     1
 74
     3
 75
     0
 76
     0
 77
     0
 78
     0
  0
ENDTAB
  0
TABLE
  2
LTYPE
  5
5
330
0
100
AcDbSymbolTable
 70
     1
  0
LTYPE
  5
14
330
5
100
AcDbSymbolTableRecord
100
AcDbLinetypeTableRecord
  2
BYBLOCK
 70
     0
  3

 72
    65
 73
     0
 40
0.0
  0
LTYPE
  5
15
330
5
100
AcDbSymbolTableRecord
100
AcDbLinetypeTableRecord
  2
BYLAYER
 70
     0
  3

 72
    65
 73
     0
 40
0.0
  0
LTYPE
  5
16
330
5
100
AcDbSymbolTableRecord
100
AcDbLinetypeTableRecord
  2
CONTINUOUS
 70
     0
  3
Solid line
 72
    65
 73
     0
 40
0.0
  0
ENDTAB
  0
TABLE
  2
LAYER
  5
2
100
AcDbSymbolTable
 70
2
  0
LAYER
  5
50
100
AcDbSymbolTableRecord
100
AcDbLayerTableRecord
  2
0
 70
0
  6
CONTINUOUS
  0
LAYER
  5
51
100
AcDbSymbolTableRecord
100
AcDbLayerTableRecord
  2
12x12_Phi
 70
0
  6
CONTINUOUS
  0
ENDTAB
  0
TABLE
  2
STYLE
  5
3
330
0
100
AcDbSymbolTable
 70
     1
  0
STYLE
  5
11
330
3
100
AcDbSymbolTableRecord
100
AcDbTextStyleTableRecord
  2
STANDARD
 70
     0
 40
0.0
 41
1.0
 50
0.0
 71
     0
 42
2.5
  3
txt
  4

  0
ENDTAB
  0
TABLE
  2
VIEW
  5
6
330
0
100
AcDbSymbolTable
 70
     0
  0
ENDTAB
  0
TABLE
  2
UCS
  5
7
330
0
100
AcDbSymbolTable
 70
     0
  0
ENDTAB
  0
TABLE
  2
APPID
  5
9
330
0
100
AcDbSymbolTable
 70
     2
  0
APPID
  5
12
330
9
100
AcDbSymbolTableRecord
100
AcDbRegAppTableRecord
  2
ACAD
 70
     0
  0
ENDTAB
  0
TABLE
  2
DIMSTYLE
  5
A
330
0
100
AcDbSymbolTable
 70
     1
  0
DIMSTYLE
105
27
330
A
100
AcDbSymbolTableRecord
100
AcDbDimStyleTableRecord
  2
ISO-25
 70
     0
  3

  4

  5

  6

  7

 40
1.0
 41
2.5
 42
0.625
 43
3.75
 44
1.25
 45
0.0
 46
0.0
 47
0.0
 48
0.0
140
2.5
141
2.5
142
0.0
143
0.03937007874016
144
1.0
145
0.0
146
1.0
147
0.625
 71
     0
 72
     0
 73
     0
 74
     0
 75
     0
 76
     0
 77
     1
 78
     8
170
     0
171
     3
172
     1
173
     0
174
     0
175
     0
176
     0
177
     0
178
     0
270
     2
271
     2
272
     2
273
     2
274
     3
340
11
275
     0
280
     0
281
     0
282
     0
283
     0
284
     8
285
     0
286
     0
287
     3
288
     0
  0
ENDTAB
  0
TABLE
  2
BLOCK_RECORD
  5
1
330
0
100
AcDbSymbolTable
 70
     1
  0
BLOCK_RECORD
  5
1F
330
1
100
AcDbSymbolTableRecord
100
AcDbBlockTableRecord
  2
*MODEL_SPACE
  0
BLOCK_RECORD
  5
1B
330
1
100
AcDbSymbolTableRecord
100
AcDbBlockTableRecord
  2
*PAPER_SPACE
  0
ENDTAB
  0
ENDSEC
  0
SECTION
  2
BLOCKS
  0
BLOCK
  5
20
330
1F
100
AcDbEntity
  8
0
100
AcDbBlockBegin
  2
*MODEL_SPACE
 70
     0
 10
0.0
 20
0.0
 30
0.0
  3
*MODEL_SPACE
  1

  0
ENDBLK
  5
21
330
1F
100
AcDbEntity
  8
0
100
AcDbBlockEnd
  0
BLOCK
  5
1C
330
1B
100
AcDbEntity
 67
     1
  8
0
100
AcDbBlockBegin
  2
*PAPER_SPACE
  1

  0
ENDBLK
  5
1D
330
1B
100
AcDbEntity
 67
     1
  8
0
100
AcDbBlockEnd
  0
ENDSEC
  0
SECTION
  2
ENTITIES
  0
SPLINE
  5
100
100
AcDbEntity
  8
12x12_Phi
 62
7
100
AcDbSpline
 70
8
 71
3
 72
8
 73
4
 74
0
 40
0
 40
0
 40
0
 40
0
 40
1
 40
1
 40
1
 40
1
 10
7.553623
 20
8.718793
 30
0.0
 10
7.553623
 20
8.718793
 30
0.0
 10
6.923261
 20
8.819408
 30
0.0
 10
6.567208
 20
8.830616
 30
0.0
  0
SPLINE
  5
101
100
AcDbEntity
  8
12x12_Phi
 62
7
100
AcDbSpline
 70
8
 71
3
 72
8
 73
4
 74
0
 40
0
 40
0
 40
0
 40
0
 40
1
 40
1
 40
1
 40
1
 10
6.567208
 20
8.830616
 30
0.0
 10
6.618410
 20
9.437208
 30
0.0
 10
6.996548
 20
9.740507
 30
0.0
 10
7.701625
 20
9.740513
 30
0.0
  0
LWPOLYLINE
  5
102
100
AcDbEntity
  8
12x12_Phi
 62
7
100
AcDbPolyline
 90
4
 70
1
 10
0.000000
 20
11.953216
 30
0.0
 10
12.000000
 20
11.953216
 30
0.0
 10
12.000000
 20
-0.046784
 30
0.0
 10
0.000000
 20
-0.046784
 30
0.0
  0
SPLINE
  5
103
100
AcDbEntity
  8
12x12_Phi
 62
7
100
AcDbSpline
 70
8
 71
3
 72
8
 73
4
 74
0
 40
0
 40
0
 40
0
 40
0
 40
1
 40
1
 40
1
 40
1
 10
4.298375
 20
9.740513
 30
0.0
 10
5.007382
 20
9.740506
 30
0.0
 10
5.385522
 20
9.437208
 30
0.0
 10
5.432792
 20
8.830617
 30
0.0
  0
SPLINE
  5
104
100
AcDbEntity
  8
12x12_Phi
 62
7
100
AcDbSpline
 70
8
 71
3
 72
8
 73
4
 74
0
 40
0
 40
0
 40
0
 40
0
 40
1
 40
1
 40
1
 40
1
 10
5.432792
 20
8.830617
 30
0.0
 10
4.412602
 20
8.787287
 30
0.0
 10
3.585424
 20
8.510571
 30
0.0
 10
2.951256
 20
8.000484
 30
0.0
  0
SPLINE
  5
105
100
AcDbEntity
  8
12x12_Phi
 62
7
100
AcDbSpline
 70
8
 71
3
 72
8
 73
4
 74
0
 40
0
 40
0
 40
0
 40
0
 40
1
 40
1
 40
1
 40
1
 10
2.951256
 20
8.000484
 30
0.0
 10
2.317084
 20
7.490385
 30
0.0
 10
1.999999
 20
6.807963
 30
0.0
 10
2.000000
 20
5.953216
 30
0.0
  0
SPLINE
  5
106
100
AcDbEntity
  8
12x12_Phi
 62
7
100
AcDbSpline
 70
8
 71
3
 72
8
 73
4
 74
0
 40
0
 40
0
 40
0
 40
0
 40
1
 40
1
 40
1
 40
1
 10
2.000000
 20
5.953216
 30
0.0
 10
1.999999
 20
5.153607
 30
0.0
 10
2.312160
 20
4.474139
 30
0.0
 10
2.936484
 20
3.914812
 30
0.0
  0
SPLINE
  5
107
100
AcDbEntity
  8
12x12_Phi
 62
7
100
AcDbSpline
 70
8
 71
3
 72
8
 73
4
 74
0
 40
0
 40
0
 40
0
 40
0
 40
1
 40
1
 40
1
 40
1
 10
2.936484
 20
3.914812
 30
0.0
 10
3.226264
 20
3.655196
 30
0.0
 10
3.669493
 20
3.437718
 30
0.0
 10
3.947686
 20
3.335689
 30
0.0
  0
LWPOLYLINE
  5
108
100
AcDbEntity
  8
12x12_Phi
 62
7
100
AcDbPolyline
 90
4
 70
0
 10
7.701625
 20
9.740513
 30
0.0
 10
7.701625
 20
9.959125
 30
0.0
 10
4.298375
 20
9.959125
 30
0.0
 10
4.298375
 20
9.740513
 30
0.0
  0
SPLINE
  5
109
100
AcDbEntity
  8
12x12_Phi
 62
7
100
AcDbSpline
 70
8
 71
3
 72
8
 73
4
 74
0
 40
0
 40
0
 40
0
 40
0
 40
1
 40
1
 40
1
 40
1
 10
4.103946
 20
3.814216
 30
0.0
 10
3.552127
 20
4.211777
 30
0.0
 10
3.276217
 20
4.891296
 30
0.0
 10
3.276218
 20
5.852773
 30
0.0
  0
SPLINE
  5
10a
100
AcDbEntity
  8
12x12_Phi
 62
7
100
AcDbSpline
 70
8
 71
3
 72
8
 73
4
 74
0
 40
0
 40
0
 40
0
 40
0
 40
1
 40
1
 40
1
 40
1
 10
3.276218
 20
5.852773
 30
0.0
 10
3.276217
 20
6.821750
 30
0.0
 10
3.467255
 20
7.496293
 30
0.0
 10
3.849335
 20
7.876407
 30
0.0
  0
SPLINE
  5
10b
100
AcDbEntity
  8
12x12_Phi
 62
7
100
AcDbSpline
 70
8
 71
3
 72
8
 73
4
 74
0
 40
0
 40
0
 40
0
 40
0
 40
1
 40
1
 40
1
 40
1
 10
3.849335
 20
7.876407
 30
0.0
 10
4.231410
 20
8.256509
 30
0.0
 10
4.759229
 20
8.466264
 30
0.0
 10
5.432792
 20
8.505654
 30
0.0
  0
LWPOLYLINE
  5
10c
100
AcDbEntity
  8
12x12_Phi
 62
7
100
AcDbPolyline
 90
2
 70
0
 10
3.947686
 20
3.335689
 30
0.0
 10
4.103946
 20
3.814216
 30
0.0
  0
SPLINE
  5
10d
100
AcDbEntity
  8
12x12_Phi
 62
7
100
AcDbSpline
 70
8
 71
3
 72
8
 73
4
 74
0
 40
0
 40
0
 40
0
 40
0
 40
1
 40
1
 40
1
 40
1
 10
5.432792
 20
3.400779
 30
0.0
 10
5.131674
 20
3.418103
 30
0.0
 10
4.862090
 20
3.467655
 30
0.0
 10
4.624039
 20
3.549425
 30
0.0
  0
LWPOLYLINE
  5
10e
100
AcDbEntity
  8
12x12_Phi
 62
7
100
AcDbPolyline
 90
2
 70
0
 10
5.432792
 20
8.505654
 30
0.0
 10
5.432792
 20
3.400779
 30
0.0
  0
SPLINE
  5
10f
100
AcDbEntity
  8
12x12_Phi
 62
7
100
AcDbSpline
 70
8
 71
3
 72
8
 73
4
 74
0
 40
0
 40
0
 40
0
 40
0
 40
1
 40
1
 40
1
 40
1
 10
4.500619
 20
3.161276
 30
0.0
 10
4.790178
 20
3.104306
 30
0.0
 10
5.100902
 20
3.075816
 30
0.0
 10
5.432792
 20
3.075816
 30
0.0
  0
SPLINE
  5
110
100
AcDbEntity
  8
12x12_Phi
 62
7
100
AcDbSpline
 70
8
 71
3
 72
8
 73
4
 74
0
 40
0
 40
0
 40
0
 40
0
 40
1
 40
1
 40
1
 40
1
 10
5.432792
 20
3.075816
 30
0.0
 10
5.381582
 20
2.469218
 30
0.0
 10
5.003443
 20
2.165919
 30
0.0
 10
4.298375
 20
2.165919
 30
0.0
  0
LWPOLYLINE
  5
111
100
AcDbEntity
  8
12x12_Phi
 62
7
100
AcDbPolyline
 90
2
 70
0
 10
4.624039
 20
3.549425
 30
0.0
 10
4.500619
 20
3.161276
 30
0.0
  0
SPLINE
  5
112
100
AcDbEntity
  8
12x12_Phi
 62
7
100
AcDbSpline
 70
8
 71
3
 72
8
 73
4
 74
0
 40
0
 40
0
 40
0
 40
0
 40
1
 40
1
 40
1
 40
1
 10
7.701625
 20
2.165919
 30
0.0
 10
6.996548
 20
2.165919
 30
0.0
 10
6.618408
 20
2.469218
 30
0.0
 10
6.567208
 20
3.075816
 30
0.0
  0
SPLINE
  5
113
100
AcDbEntity
  8
12x12_Phi
 62
7
100
AcDbSpline
 70
8
 71
3
 72
8
 73
4
 74
0
 40
0
 40
0
 40
0
 40
0
 40
1
 40
1
 40
1
 40
1
 10
6.567208
 20
3.075816
 30
0.0
 10
7.611023
 20
3.075815
 30
0.0
 10
8.444110
 20
3.355479
 30
0.0
 10
9.066470
 20
3.914812
 30
0.0
  0
SPLINE
  5
114
100
AcDbEntity
  8
12x12_Phi
 62
7
100
AcDbSpline
 70
8
 71
3
 72
8
 73
4
 74
0
 40
0
 40
0
 40
0
 40
0
 40
1
 40
1
 40
1
 40
1
 10
9.066470
 20
3.914812
 30
0.0
 10
9.688816
 20
4.474139
 30
0.0
 10
10.000000
 20
5.153607
 30
0.0
 10
10.000000
 20
5.953216
 30
0.0
  0
SPLINE
  5
115
100
AcDbEntity
  8
12x12_Phi
 62
7
100
AcDbSpline
 70
8
 71
3
 72
8
 73
4
 74
0
 40
0
 40
0
 40
0
 40
0
 40
1
 40
1
 40
1
 40
1
 10
10.000000
 20
5.953216
 30
0.0
 10
9.999992
 20
6.721306
 30
0.0
 10
9.709495
 20
7.384034
 30
0.0
 10
9.128508
 20
7.941399
 30
0.0
  0
SPLINE
  5
116
100
AcDbEntity
  8
12x12_Phi
 62
7
100
AcDbSpline
 70
8
 71
3
 72
8
 73
4
 74
0
 40
0
 40
0
 40
0
 40
0
 40
1
 40
1
 40
1
 40
1
 10
9.128508
 20
7.941399
 30
0.0
 10
8.850405
 20
8.208183
 30
0.0
 10
8.509807
 20
8.415179
 30
0.0
 10
8.106714
 20
8.562387
 30
0.0
  0
LWPOLYLINE
  5
117
100
AcDbEntity
  8
12x12_Phi
 62
7
100
AcDbPolyline
 90
4
 70
0
 10
4.298375
 20
2.165919
 30
0.0
 10
4.298375
 20
1.947308
 30
0.0
 10
7.701625
 20
1.947308
 30
0.0
 10
7.701625
 20
2.165919
 30
0.0
  0
SPLINE
  5
118
100
AcDbEntity
  8
12x12_Phi
 62
7
100
AcDbSpline
 70
8
 71
3
 72
8
 73
4
 74
0
 40
0
 40
0
 40
0
 40
0
 40
1
 40
1
 40
1
 40
1
 10
7.944436
 20
8.058052
 30
0.0
 10
8.467937
 20
7.655422
 30
0.0
 10
8.729690
 20
6.985322
 30
0.0
 10
8.729690
 20
6.047752
 30
0.0
  0
SPLINE
  5
119
100
AcDbEntity
  8
12x12_Phi
 62
7
100
AcDbSpline
 70
8
 71
3
 72
8
 73
4
 74
0
 40
0
 40
0
 40
0
 40
0
 40
1
 40
1
 40
1
 40
1
 10
8.729690
 20
6.047752
 30
0.0
 10
8.729682
 20
5.059072
 30
0.0
 10
8.531751
 20
4.377635
 30
0.0
 10
8.135894
 20
4.003438
 30
0.0
  0
SPLINE
  5
11a
100
AcDbEntity
  8
12x12_Phi
 62
7
100
AcDbSpline
 70
8
 71
3
 72
8
 73
4
 74
0
 40
0
 40
0
 40
0
 40
0
 40
1
 40
1
 40
1
 40
1
 10
8.135894
 20
4.003438
 30
0.0
 10
7.740024
 20
3.629236
 30
0.0
 10
7.217128
 20
3.428349
 30
0.0
 10
6.567208
 20
3.400779
 30
0.0
  0
LWPOLYLINE
  5
11b
100
AcDbEntity
  8
12x12_Phi
 62
7
100
AcDbPolyline
 90
2
 70
0
 10
8.106714
 20
8.562387
 30
0.0
 10
7.944436
 20
8.058052
 30
0.0
  0
SPLINE
  5
11c
100
AcDbEntity
  8
12x12_Phi
 62
7
100
AcDbSpline
 70
8
 71
3
 72
8
 73
4
 74
0
 40
0
 40
0
 40
0
 40
0
 40
1
 40
1
 40
1
 40
1
 10
6.567208
 20
8.505654
 30
0.0
 10
6.895062
 20
8.486844
 30
0.0
 10
7.185636
 20
8.429934
 30
0.0
 10
7.438932
 20
8.334933
 30
0.0
  0
LWPOLYLINE
  5
11d
100
AcDbEntity
  8
12x12_Phi
 62
7
100
AcDbPolyline
 90
2
 70
0
 10
6.567208
 20
3.400779
 30
0.0
 10
6.567208
 20
8.505654
 30
0.0
  0
LWPOLYLINE
  5
11e
100
AcDbEntity
  8
12x12_Phi
 62
7
100
AcDbPolyline
 90
2
 70
0
 10
7.438932
 20
8.334933
 30
0.0
 10
7.553623
 20
8.718793
 30
0.0
  0
ENDSEC
  0
SECTION
  2
OBJECTS
  0
DICTIONARY
  5
C
330
0
100
AcDbDictionary
  3
ACAD_GROUP
350
D
  3
ACAD_MLINESTYLE
350
17
  0
DICTIONARY
  5
D
330
C
100
AcDbDictionary
  0
DICTIONARY
  5
1A
330
C
100
AcDbDictionary
  0
DICTIONARY
  5
17
330
C
100
AcDbDictionary
  3
STANDARD
350
18
  0
DICTIONARY
  5
19
330
C
100
AcDbDictionary
  0
ENDSEC
  0
EOF
