<?xml version="1.0" encoding="UTF-8" standalone="no"?>
<!-- Created with Inkscape (http://www.inkscape.org/) -->

<svg
   xmlns:dc="http://purl.org/dc/elements/1.1/"
   xmlns:cc="http://creativecommons.org/ns#"
   xmlns:rdf="http://www.w3.org/1999/02/22-rdf-syntax-ns#"
   xmlns:svg="http://www.w3.org/2000/svg"
   xmlns="http://www.w3.org/2000/svg"
   xmlns:sodipodi="http://sodipodi.sourceforge.net/DTD/sodipodi-0.dtd"
   xmlns:inkscape="http://www.inkscape.org/namespaces/inkscape"
   width="48in"
   height="48in"
   viewBox="0 0 1219.2 1219.2"
   version="1.1"
   id="svg8"
   inkscape:version="0.92.3 (2405546, 2018-03-11)"
   sodipodi:docname="squares.svg">
  <defs
     id="defs2" />
  <sodipodi:namedview
     id="base"
     pagecolor="#ffffff"
     bordercolor="#666666"
     borderopacity="1.0"
     inkscape:pageopacity="0.0"
     inkscape:pageshadow="2"
     inkscape:zoom="0.061871843"
     inkscape:cx="4178.2235"
     inkscape:cy="1146.1158"
     inkscape:document-units="mm"
     inkscape:current-layer="g820"
     showgrid="false"
     units="in"
     fit-margin-top="0"
     fit-margin-left="0"
     fit-margin-right="0"
     fit-margin-bottom="0"
     inkscape:window-width="1362"
     inkscape:window-height="729"
     inkscape:window-x="0"
     inkscape:window-y="18"
     inkscape:window-maximized="0" />
  <metadata
     id="metadata5">
    <rdf:RDF>
      <cc:Work
         rdf:about="">
        <dc:format>image/svg+xml</dc:format>
        <dc:type
           rdf:resource="http://purl.org/dc/dcmitype/StillImage" />
        <dc:title></dc:title>
      </cc:Work>
    </rdf:RDF>
  </metadata>
  <g
     inkscape:label="outline"
     inkscape:groupmode="layer"
     id="layer1"
     transform="translate(0,922.20002)">
    <path
       style="fill:#ff0000;stroke:none;stroke-width:650.24157715;stroke-miterlimit:4;stroke-dasharray:none"
       d="M 76.2,-846.00002 H 1143 v 1066.8 H 76.2 Z"
       id="rect815"
       inkscape:connector-curvature="0" />
  </g>
  <g
     transform="translate(0,922.20002)"
     id="g820"
     inkscape:groupmode="layer"
     inkscape:label="squares">
    <path
       inkscape:connector-curvature="0"
       id="path818"
       d="m 115.824,-806.37602 h 304.8 v 304.8 h -304.8 z"
       style="fill:#000000;stroke:none;stroke-width:185.78330994;stroke-miterlimit:4;stroke-dasharray:none"
       inkscape:tile-cx="254"
       inkscape:tile-cy="254"
       inkscape:tile-w="304.8"
       inkscape:tile-h="304.8"
       inkscape:tile-x0="101.6"
       inkscape:tile-y0="101.6" />
    <path
       inkscape:tile-y0="101.6"
       inkscape:tile-x0="101.6"
       style="fill:#000000;stroke:none;stroke-width:185.78330994;stroke-miterlimit:4;stroke-dasharray:none"
       d="m 115.824,-465.00002 h 304.8 v 304.8 h -304.8 z"
       id="use860"
       inkscape:connector-curvature="0" />
    <path
       inkscape:tile-y0="101.6"
       inkscape:tile-x0="101.6"
       style="fill:#000000;stroke:none;stroke-width:185.78330994;stroke-miterlimit:4;stroke-dasharray:none"
       d="m 115.824,-123.62402 h 304.8 v 304.8 h -304.8 z"
       id="use862"
       inkscape:connector-curvature="0" />
    <path
       inkscape:tile-y0="101.6"
       inkscape:tile-x0="101.6"
       style="fill:#000000;stroke:none;stroke-width:185.78330994;stroke-miterlimit:4;stroke-dasharray:none"
       d="M 457.2,-806.37602 H 762 v 304.8 H 457.2 Z"
       id="use864"
       inkscape:connector-curvature="0" />
    <path
       inkscape:tile-y0="101.6"
       inkscape:tile-x0="101.6"
       style="fill:#000000;stroke:none;stroke-width:185.78330994;stroke-miterlimit:4;stroke-dasharray:none"
       d="M 457.2,-465.00002 H 762 v 304.8 H 457.2 Z"
       id="use866"
       inkscape:connector-curvature="0" />
    <path
       inkscape:tile-y0="101.6"
       inkscape:tile-x0="101.6"
       style="fill:#000000;stroke:none;stroke-width:185.78330994;stroke-miterlimit:4;stroke-dasharray:none"
       d="M 457.2,-123.62402 H 762 v 304.8 H 457.2 Z"
       id="use868"
       inkscape:connector-curvature="0" />
    <path
       inkscape:tile-y0="101.6"
       inkscape:tile-x0="101.6"
       style="fill:#000000;stroke:none;stroke-width:185.78330994;stroke-miterlimit:4;stroke-dasharray:none"
       d="m 798.576,-806.37602 h 304.8 v 304.8 h -304.8 z"
       id="use870"
       inkscape:connector-curvature="0" />
    <path
       inkscape:tile-y0="101.6"
       inkscape:tile-x0="101.6"
       style="fill:#000000;stroke:none;stroke-width:185.78330994;stroke-miterlimit:4;stroke-dasharray:none"
       d="m 798.576,-465.00002 h 304.8 v 304.8 h -304.8 z"
       id="use872"
       inkscape:connector-curvature="0" />
    <path
       inkscape:tile-y0="101.6"
       inkscape:tile-x0="101.6"
       style="fill:#000000;stroke:none;stroke-width:185.78330994;stroke-miterlimit:4;stroke-dasharray:none"
       d="m 798.576,-123.62402 h 304.8 v 304.8 h -304.8 z"
       id="use874"
       inkscape:connector-curvature="0" />
  </g>
</svg>
